…
```r
mm_data %>% 
  filter(
    track_name %in% (mm_data$track_name[duplicated(mm_data$track_name)])) %>%
  select(track_name, album_name, explicit) %>%
  arrange(album_name)
```

```
## # A tibble: 54 x 3
##    track_name                  album_name explicit
##    <chr>                       <chr>      <lgl>   
##  1 Doors                       GO:OD AM   TRUE    
##  2 Brand Name                  GO:OD AM   TRUE    
##  3 Rush Hour                   GO:OD AM   TRUE    
##  4 Two Matches (feat. Ab-Soul) GO:OD AM   TRUE    
##  5 100 Grandkids               GO:OD AM   TRUE    
##  6 Time Flies (feat. Lil B)    GO:OD AM   TRUE    
##  7 Weekend (feat. Miguel)      GO:OD AM   TRUE    
##  8 Clubhouse                   GO:OD AM   TRUE    
##  9 In the Bag                  GO:OD AM   TRUE    
## 10 Break the Law               GO:OD AM   TRUE    
## # ... with 44 more rows
```
…
